{
    "apiKey": "AIzaSyACbOl2Q1JI4MySBLvTU1AOa9K4fWmZyE8",
    "authDomain": "aliens-baywatch.firebaseapp.com",
    "databaseURL": "https://aliens-baywatch.firebaseio.com",
    "projectId": "aliens-baywatch",
    "storageBucket": "aliens-baywatch.appspot.com",
    "messagingSenderId": "751129432273"
 }
